%YAML 1.1
%TAG !u! tag:unity3d.com,2011:
--- !u!114 &11400000
MonoBehaviour:
  m_ObjectHideFlags: 0
  m_CorrespondingSourceObject: {fileID: 0}
  m_PrefabInstance: {fileID: 0}
  m_PrefabAsset: {fileID: 0}
  m_GameObject: {fileID: 0}
  m_Enabled: 1
  m_EditorHideFlags: 0
  m_Script: {fileID: 11500000, guid: cd05d4598d7f9e94ebb4d8e5fea883bf, type: 3}
  m_Name: RenderPipelineResources
  m_EditorClassIdentifier: 
  postProcessShader: {fileID: 4800000, guid: 9fbbaae0e842a904d94386d61ea6f35c, type: 3}
  outlineShader: {fileID: 4800000, guid: c8186c2cd90382344bfde9571c28154b, type: 3}
  drawnLineShader: {fileID: 4800000, guid: 359f87b0250da314bb7ecafbf0daa971, type: 3}
  panelStencilShader: {fileID: 4800000, guid: 6007d14534ebfa8a780f1914cac8d4c0, type: 3}
  outlineComputeShader: {fileID: 7200000, guid: bd976eedc4a766640a460f2f2fb84fa7, type: 3}
  outlineArgsComputeShader: {fileID: 7200000, guid: 6acb509f5a614f3459e75f70c339f644, type: 3}
  outlineUpdateVerticesComputeShader: {fileID: 7200000, guid: 01e5bfd44e9883e40a4f9176e424bde2, type: 3}
  outlineUpdateFaceNormalsComputeShader: {fileID: 7200000, guid: 5cb9af61ffc267b4daa165fb56c764fc, type: 3}
  whiteNoiseTexture: {fileID: 2800000, guid: adf3b1997509dd44e8124e145f0bd320, type: 3}
