%YAML 1.1
%TAG !u! tag:unity3d.com,2011:
--- !u!114 &11400000
MonoBehaviour:
  m_ObjectHideFlags: 0
  m_CorrespondingSourceObject: {fileID: 0}
  m_PrefabInstance: {fileID: 0}
  m_PrefabAsset: {fileID: 0}
  m_GameObject: {fileID: 0}
  m_Enabled: 1
  m_EditorHideFlags: 0
  m_Script: {fileID: 11500000, guid: 91b74e49611274a48a15cb76e023767a, type: 3}
  m_Name: Storyboard
  m_EditorClassIdentifier: 
  pages:
  - pageScene: {fileID: 102900000, guid: 26a7b7c01f2856e4b8c7aa6a22327704, type: 3}
    title: Audio Testpage
    previewIcon: {fileID: 0}
    runtimeSceneIndex: 1
    timelineEntries:
    - id: 4d960c9d-6f28-4585-9bc8-5a3ed2b7db45
      time: 2.3430088
    - id: e04f2a08-3ea1-4d10-9422-6d1b4caf6f4f
      time: 1.9855187
    - id: 56f83b10-2a5a-4ffe-96a2-a7727627de1e
      time: 1.4927622
    - id: ce5df0a5-fcf0-470a-ba76-211544507035
      time: 1.3719887
    - id: ea0b33f0-690c-487e-b770-21a7685fd4da
      time: 2.3285158
    - id: 70092342-79f9-4b48-89a3-48adde4bdcc8
      time: 3.7971234
    - id: 3b205dc3-551a-45cc-bc0c-95ce70f4b490
      time: 2.8019485
    - id: 995b2ef9-5699-4be4-b351-2578b2764640
      time: 1.2415531
    - id: 82b5ad29-5c36-4dfa-952d-fa338e9da1c1
      time: 3.4831119
    - id: 2d6e31fa-6087-455b-8f59-742e01a54d99
      time: 3.5797307
    - id: 8117dee6-0e80-4623-b660-a3fed409cd0c
      time: 4.3961606
    - id: c4fdc3f8-ef8c-4d2e-94b0-fe881475c45c
      time: 4.004854
  - pageScene: {fileID: 102900000, guid: 1ceb606cf505d054a96fd6648ed6af8e, type: 3}
    title: Tutorial
    previewIcon: {fileID: 0}
    runtimeSceneIndex: 2
    timelineEntries: []
  - pageScene: {fileID: 102900000, guid: 5240f9093fab4b5409cc4d0ad01c69dd, type: 3}
    title: Cap Entry
    previewIcon: {fileID: 0}
    runtimeSceneIndex: 3
    timelineEntries: []
  - pageScene: {fileID: 102900000, guid: ae5fc2ed9c497ce4099049c7fbccfeb8, type: 3}
    title: Finding Box
    previewIcon: {fileID: 0}
    runtimeSceneIndex: 4
    timelineEntries: []
  - pageScene: {fileID: 102900000, guid: 9070ff18d4f0e8147ad82f52e5366a87, type: 3}
    title: Alarm, Door
    previewIcon: {fileID: 0}
    runtimeSceneIndex: 5
    timelineEntries: []
  - pageScene: {fileID: 102900000, guid: 4708ce028a60ce94fac5877a3ed3b3b9, type: 3}
    title: Find and Free Chay
    previewIcon: {fileID: 0}
    runtimeSceneIndex: 6
    timelineEntries: []
  - pageScene: {fileID: 102900000, guid: 47a6f1e32197970409527587a1be2ee4, type: 3}
    title: discussion about leaving chay
    previewIcon: {fileID: 0}
    runtimeSceneIndex: 7
    timelineEntries: []
  - pageScene: {fileID: 102900000, guid: 38c8f681cf0de46488e7a3fee5242ea5, type: 3}
    title: phone in to Inka
    previewIcon: {fileID: 0}
    runtimeSceneIndex: 8
    timelineEntries: []
  - pageScene: {fileID: 102900000, guid: ed8df2023529d2a4786ba51a66f2eb15, type: 3}
    title: Looking for these - Tib standoff
    previewIcon: {fileID: 0}
    runtimeSceneIndex: 9
    timelineEntries: []
  - pageScene: {fileID: 102900000, guid: ccf02f25c1db82140849bec1691f08b3, type: 3}
    title: Stalling for crash - I'll have that back
    previewIcon: {fileID: 0}
    runtimeSceneIndex: 10
    timelineEntries: []
  - pageScene: {fileID: 102900000, guid: b890e9d22cda23a4085fb7b127ed9216, type: 3}
    title: Crash into Ridge
    previewIcon: {fileID: 0}
    runtimeSceneIndex: 11
    timelineEntries: []
  - pageScene: {fileID: 102900000, guid: 42857efa2740f9848ae0bfe10a0ba6a4, type: 3}
    title: that's our cue
    previewIcon: {fileID: 0}
    runtimeSceneIndex: 12
    timelineEntries: []
  - pageScene: {fileID: 102900000, guid: 66256335269971f4e8a093a6fb180c3a, type: 3}
    title: Tib Catching Up, Captain Stays Behin
    previewIcon: {fileID: 0}
    runtimeSceneIndex: 13
    timelineEntries: []
  - pageScene: {fileID: 102900000, guid: f9a0e969159123048b446742c5f824aa, type: 3}
    title: Lei and Dhulga moving to ridge
    previewIcon: {fileID: 0}
    runtimeSceneIndex: 14
    timelineEntries: []
  - pageScene: {fileID: 102900000, guid: 00a5b500a81e1964aa2f625ab42b83ec, type: 3}
    title: Lei Jump, Dropping Chay
    previewIcon: {fileID: 0}
    runtimeSceneIndex: 15
    timelineEntries: []
  - pageScene: {fileID: 102900000, guid: 5d970e6a0c6d4744bb26763e72e94a08, type: 3}
    title: Dhulga Catch Chay, Jump
    previewIcon: {fileID: 0}
    runtimeSceneIndex: 16
    timelineEntries: []
  - pageScene: {fileID: 102900000, guid: 6ffd76b1b766a6949bf68609432fd3a6, type: 3}
    title: Sliding to HB
    previewIcon: {fileID: 0}
    runtimeSceneIndex: 17
    timelineEntries: []
  - pageScene: {fileID: 102900000, guid: fe20af3c237c7ba4cac7fe77ea3fbada, type: 3}
    title: Cap V Tib
    previewIcon: {fileID: 0}
    runtimeSceneIndex: 18
    timelineEntries: []
  - pageScene: {fileID: 102900000, guid: e29079361919a7948a1942f54c75fc16, type: 3}
    title: Cap box Ruse, Ley Throw Hook
    previewIcon: {fileID: 0}
    runtimeSceneIndex: 19
    timelineEntries: []
  - pageScene: {fileID: 102900000, guid: 08f74ae70e9f95240acab5672f59a20b, type: 3}
    title: Cap Escape
    previewIcon: {fileID: 0}
    runtimeSceneIndex: 20
    timelineEntries: []
  - pageScene: {fileID: 102900000, guid: 25c3e65e33c7cd04dab55908886bdd7b, type: 3}
    title: HB turn, Tib improvising Steering
    previewIcon: {fileID: 0}
    runtimeSceneIndex: 21
    timelineEntries: []
  - pageScene: {fileID: 102900000, guid: 17b55983031d7c84ba6f53e927a4a4de, type: 3}
    title: Chase Start, HB Skid deploy
    previewIcon: {fileID: 0}
    runtimeSceneIndex: 22
    timelineEntries: []
  - pageScene: {fileID: 102900000, guid: 92c141d79b1320b4791ae1a77f0ae273, type: 3}
    title: Skids Deploying HB
    previewIcon: {fileID: 0}
    runtimeSceneIndex: 23
    timelineEntries: []
  - pageScene: {fileID: 102900000, guid: 95d6e8ac1c7fef646930d6d9e2ccfe61, type: 3}
    title: HB Gets shot
    previewIcon: {fileID: 0}
    runtimeSceneIndex: 24
    timelineEntries: []
  - pageScene: {fileID: 102900000, guid: 0f4dfd443162f1b49816e8c8b332e7ce, type: 3}
    title: HB on top pf Black Ice
    previewIcon: {fileID: 0}
    runtimeSceneIndex: 25
    timelineEntries: []
  - pageScene: {fileID: 102900000, guid: 1c34798cb3655744783692595f677241, type: 3}
    title: Tib Order to go on Black Ice
    previewIcon: {fileID: 0}
    runtimeSceneIndex: 26
    timelineEntries: []
  - pageScene: {fileID: 102900000, guid: faf923994ea30064186c0a63d3eb4faf, type: 3}
    title: Black Ice break
    previewIcon: {fileID: 0}
    runtimeSceneIndex: 27
    timelineEntries: []
  - pageScene: {fileID: 102900000, guid: ef252a9b25342c94aaf64b8cf5939e3d, type: 3}
    title: This is How I love Tuesdays
    previewIcon: {fileID: 0}
    runtimeSceneIndex: 28
    timelineEntries: []
  - pageScene: {fileID: 102900000, guid: c53f43239cbab4f4193b10158f467637, type: 3}
    title: Credits
    previewIcon: {fileID: 0}
    runtimeSceneIndex: 29
    timelineEntries: []
  - pageScene: {fileID: 102900000, guid: 6a1e0f160c8f5054aba976888171c94c, type: 3}
    title: Chay Wake up
    previewIcon: {fileID: 0}
    runtimeSceneIndex: 30
    timelineEntries: []
  - pageScene: {fileID: 102900000, guid: 8a3c72a59f24be64bbc745e412634ae6, type: 3}
    title: To be continued
    previewIcon: {fileID: 0}
    runtimeSceneIndex: 31
    timelineEntries: []
  mainScene: {fileID: 102900000, guid: 83e8d1058372687429d604bf2d073fdb, type: 3}
