%YAML 1.1
%TAG !u! tag:unity3d.com,2011:
--- !u!21 &2100000
Material:
  serializedVersion: 6
  m_ObjectHideFlags: 0
  m_CorrespondingSourceObject: {fileID: 0}
  m_PrefabInstance: {fileID: 0}
  m_PrefabAsset: {fileID: 0}
  m_Name: Hunter
  m_Shader: {fileID: 4800000, guid: b0f7d8974e9a2834da63fd79737cedb3, type: 3}
  m_ShaderKeywords: 
  m_LightmapFlags: 4
  m_EnableInstancingVariants: 0
  m_DoubleSidedGI: 0
  m_CustomRenderQueue: -1
  stringTagMap: {}
  disabledShaderPasses: []
  m_SavedProperties:
    serializedVersion: 3
    m_TexEnvs:
    - _BaseMap:
        m_Texture: {fileID: 2800000, guid: a2c2d14b95672eb488b09a07ba746261, type: 3}
        m_Scale: {x: 1, y: 1}
        m_Offset: {x: 0, y: 0}
    - _HatchingMap:
        m_Texture: {fileID: 2800000, guid: d27986d886e470845bea74c8a9547fd0, type: 3}
        m_Scale: {x: 1, y: 1}
        m_Offset: {x: 0, y: 0}
    - _LineDataMap:
        m_Texture: {fileID: 0}
        m_Scale: {x: 1, y: 1}
        m_Offset: {x: 0, y: 0}
    - _ShadowMap:
        m_Texture: {fileID: 0}
        m_Scale: {x: 1, y: 1}
        m_Offset: {x: 0, y: 0}
    m_Floats:
    - _HatchingLineCount: 200
    - _HatchingLinesCount: 200
    - _HatchingRatio: 1.8
    - _HatchingScale: 200
    - _HatchingSpacing: 1
    - _Overwrite_Light: 0
    - _Shadow: 0
    - _ShadowOutlineWidth: 1
    - _UseShadowMap: 0
    m_Colors:
    - _BaseColor: {r: 0.9433962, g: 0.9433962, b: 0.9433962, a: 1}
    - _CustomLightDir: {r: 1, g: 1, b: 1, a: 1}
    - _ShadowColor: {r: 0.5566038, g: 0.06038627, b: 0.39357445, a: 1}
  m_BuildTextureStacks: []
